…
I wanted to pick an offender that was typical, meaning they represented
the ‘average’ person from this sample. As I can see from the `skimr`
output above, mean `age` is `40.1` (median is `39`), so I will start
there. We will build a sample of age that is the mean +/- the standard
deviation.

``` r
ExecOffenders %>% 
  # age 40
  dplyr::filter(age <= 48.97 & 
                  age >= 31.23)
```

    #>  # A tibble: 371 x 18
    #>     last_name first_name execution offender_info last_statement tdcj_number   age
    #>     <chr>     <chr>          <dbl> <chr>         <chr>                <dbl> <dbl>
    #>   1 Hall      Justen           566 Offender Inf… Last Statement      999497    38
    #>   2 Sparks    Robert           565 Offender Inf… Last Statement      999542    45
    #>   3 Soliz     Mark             564 Offender Inf… Last Statement      999571    37
    #>   4 Swearing… Larry            562 Offender Inf… Last Statement      999361    48
    #>   5 King      John             561 Offender Inf… Last Statement      999295    44
    #>   6 Braziel,… Alvin            558 Offender Inf… Last Statement      999393    43
    #>   7 Garcia    Joseph           557 Offender Inf… Last Statement      999441    47
    #>   8 Acker     Daniel           555 Offender Inf… Last Statement      999381    46
    #>   9 Young     Christoph…       553 Offender Inf… Last Statement      999508    34
    #>  10 Castillo  Juan             551 Offender Inf… Last Statement      999502    37
    #>  # … with 361 more rows, and 11 more variables: date <date>, race <chr>,
    #>  #   county <chr>, last_url <chr>, info_url <chr>, name_last_url <chr>,
    #>  #   dr_info_url <chr>, jpg_html <chr>, year <dbl>, yday <dbl>, month <ord>
…
